<?xml version="1.0" encoding="utf-8"?>
<!-- Generator: Adobe Illustrator 15.0.0, SVG Export Plug-In . SVG Version: 6.00 Build 0)  -->
<!DOCTYPE svg PUBLIC "-//W3C//DTD SVG 1.1//EN" "http://www.w3.org/Graphics/SVG/1.1/DTD/svg11.dtd">
<svg version="1.1" id="圖層_1" xmlns="http://www.w3.org/2000/svg" xmlns:xlink="http://www.w3.org/1999/xlink" x="0px" y="0px"
	 width="16px" height="24px" viewBox="0 0 16 24" enable-background="new 0 0 16 24" xml:space="preserve">
<g id="圖片">
	<path fill="#FFFFFF" d="M8,14.138c0.268,0,0.487-0.22,0.487-0.486V7.775c0-0.273-0.226-0.498-0.498-0.498S7.491,7.502,7.491,7.775
		v5.876c0,0.267,0.221,0.486,0.487,0.486H8z"/>
	<path fill="#FFFFFF" d="M10.291,13.131L8,15.428l-2.295-2.297C5.501,12.96,5.19,12.993,5.02,13.196
		c-0.149,0.182-0.149,0.443,0,0.62l2.643,2.644c0.188,0.188,0.493,0.188,0.686,0l2.639-2.644c0.171-0.203,0.144-0.514-0.063-0.686
		c-0.177-0.149-0.445-0.149-0.621,0H10.291z"/>
</g>
</svg>
