<?xml version="1.0" encoding="utf-8"?>
<!-- Generator: Adobe Illustrator 21.0.0, SVG Export Plug-In . SVG Version: 6.00 Build 0)  -->
<svg version="1.1" id="圖層_1" xmlns="http://www.w3.org/2000/svg" xmlns:xlink="http://www.w3.org/1999/xlink" x="0px" y="0px"
	 viewBox="0 0 724.7 312.6" style="enable-background:new 0 0 724.7 312.6;" xml:space="preserve">
<style type="text/css">
	.st0{opacity:0.6;fill:#4E4E4E;enable-background:new    ;}
</style>
<title>img-frame</title>
<g id="圖層_2">
	<g id="底圖">
		<path class="st0" d="M682.4,263.8c-12.4,0-24.5,0.1-36.6-0.1c-1.5,0-3-1.6-4.1-3.1c11.5,0,23.1-0.1,34.6,0.1
			c2.8,0,3.9-0.9,4.8-3.5c4.9-14.4,14.7-24.1,29.1-28.8c2-0.7,2.9-1.4,2.9-3.7c-0.1-28.7-0.1-106.2-0.1-134.9c0-0.7-0.1-1.4-0.1-1.6
			c-4.9-2.4-9.7-4.3-14-7c-8.7-5.4-15.1-13.8-18-23.5c-0.9-2.8-2.2-3.4-4.8-3.4c-10.1,0.1-20.2,0.1-30.3,0h-3.9l-0.3-1.3
			c2-0.6,4-1.7,6-1.8c10.7-0.2,21.3,0,32-0.1c1.9,0,3,0.3,3.6,2.5c4.3,16,14.6,26.1,30.4,30.6c2,0.6,2.8,1.2,2.8,3.4
			c-0.1,30.7-0.1,110.3-0.1,141c0,0.3-0.1,0.7-0.1,1.3C698.2,234.2,686.9,245.4,682.4,263.8"/>
		<path class="st0" d="M83.4,260.5c-1.8,2.9-4,3.4-6.8,3.3c-10.4-0.2-20.9-0.1-31.3,0c-1.7,0-2.9-0.1-3.5-2.2
			c-4.4-16.7-15.2-27-31.8-31.3c-0.4-0.1-0.8-0.3-1.1-0.5V85.4c4.9-2.2,10-3.8,14.4-6.4c9.3-5.5,16-14.6,18.4-25.1
			c0.6-2.3,1.5-2.9,3.7-2.8C55.9,51.1,66.4,51,77,51.1c2.1,0,4.2,1.1,6.3,1.7L83,54.2H72.6c-8.3,0-16.5,0-24.8,0c-2,0-3,0.5-3.6,2.6
			c-4.9,15-14.8,25-29.9,29.9c-1.9,0.6-2.5,1.4-2.5,3.4c0,28.7,0,106.2,0,134.9c0,2,0.8,2.7,2.6,3.3c14.9,4.8,24.8,14.7,29.7,29.6
			c0.8,2.4,1.9,2.9,4.2,2.8C59.8,260.5,71.4,260.6,83.4,260.5"/>
		<path class="st0" d="M416.3,23.5c-7.1-5-14.6-9.2-23.4-10.3c-16.2-2.1-27.3,6.4-29.1,22.6c-0.1,1.1-0.4,2.1-0.7,4.1
			c-2.9-13.2,1.9-26.4,11.6-32.9s24.5-6.2,34.4,0.7c7.9,5.5,13.8,12.4,14.2,22.7c0.6,14.6-12.1,25-26.2,21.3
			c-11.5-3-16.1-17.9-8.2-26.9c4.1-4.6,10.5-5.7,16.3-2.7s8.4,8.1,6.8,14.2c-1.2,4.9-6.2,8-11.1,6.8c-4.4-0.9-6.8-4.6-6-9.3
			c0.5-2.6,1.8-4.7,4.7-4.6c1.3,0.1,2.4,0.8,3.1,1.9c0.2,1.3-0.2,2.6-1.1,3.5c-1.5,1.3-3.8,2-2.1,4.5c1.5,2.3,3.9,2.2,6.2,1.2
			c2.5-1,4.2-3.5,4.3-6.2c0.5-3.4-1.1-6.8-4-8.6c-4.2-2.8-9.8-2.7-13.9,0.3c-3.8,2.8-5.4,8.7-3.8,14.1c2.5,8.3,10.9,11.9,20.1,8.6
			c9-3.2,14.8-14.2,11.4-23.3C414,9,393.6-3.8,374,11.9c-0.4,0.3-0.6,0.6-1.7,1.8c8.5-3.5,16.4-4.9,24.4-2.5
			C404.3,13.4,412,15.7,416.3,23.5"/>
		<path class="st0" d="M359.5,39.4c-0.4-2.5-0.6-5-1.1-7.5c-2.6-12.1-11-19-23.4-19.1c-9.7-0.1-18.1,3.6-25.8,9.2
			c-0.8,0.6-1.6,1.1-2.5,1.4c4.2-7.9,12.2-10,19.9-12.3c8-2.3,15.8-1,24.1,2.8c-11.4-12.2-29.6-11.6-41,0.6
			c-8.1,8.8-9.7,17.3-4.8,26.3c4,7.3,13.9,11,21.7,8.1c6.1-2.3,9.7-9.2,8.3-16c-1-5.8-6.4-9.8-12.2-9.2c-6.7,0.5-11.1,6-9.5,11.9
			c1,3.6,4.5,6.2,7.7,5.2c1.2-0.4,2.3-1.4,2.8-2.6c0.3-0.7-1-1.9-1.6-2.9c-0.7-1.3-1.7-2.5-2-3.9c-0.1-0.6,1.5-2.1,2.2-2
			c1.6,0.2,3.5,0.7,4.5,1.8c3.3,3.9,0.8,10.6-4.1,11.9c-4,1.1-8.2-0.5-10.5-3.9c-2.5-4.3-2.1-9.6,1-13.5c4.2-4.9,11.4-6.6,16.9-4
			s9,10.2,7.6,17c-2.6,13.4-19.8,18.5-30.6,9.2c-8.7-7.5-9.9-20.6-2.9-30.9c7.8-11.4,21.8-16.9,35.3-13.7
			c12.1,2.8,20.8,13.8,21.3,27.2c0.1,3-0.3,6-0.4,9L359.5,39.4"/>
		<path class="st0" d="M362.8,275.6c0.4,2.4,0.6,4.7,1.1,7.1c2.8,13.8,14,21.2,28.4,19c6.7-1,13.1-3.5,18.7-7.4
			c1.6-1.1,3.1-2.2,4.9-3.5c-2.3,5.8-8.8,9.9-19.4,12.8c-7.9,2.1-15.6,1.2-23.3-1.6c3.4,3.9,7.7,5.9,12.5,7
			c15.1,3.8,33.6-8.8,34.4-23.5c0.8-13.3-10.1-23.1-22.6-20.3c-7.1,1.6-11.5,8.9-10,16.5c1.2,6.3,6.7,10,13.3,9.1
			c5.8-0.8,9.6-5.7,8.7-11.1c-0.7-3.9-4.5-6.9-7.9-5.9c-1.3,0.4-2.3,1.4-2.9,2.6c-0.3,0.7,1,1.9,1.6,2.9c0.7,1.3,1.8,2.5,2,3.8
			c0.1,0.6-1.5,2.1-2.1,2.1c-1.6-0.1-3.5-0.6-4.5-1.7c-3.5-4.1-0.7-11.2,4.6-12.1c3.8-0.6,7.2,0.1,9.5,3.4c2.5,3.3,3,7.7,1.1,11.4
			c-2.5,5.1-7,7.5-12.5,7.8c-5.5,0.3-9.5-2.2-11.9-7.1c-3.2-6.4-2.8-12.8,1.6-18.4c5-6.4,12-7.3,19.3-5.7
			c10.8,2.3,17.7,14.3,14.9,25.8c-4.7,19.3-31.6,32.6-50.5,17.1C362.3,298,360.4,287.2,362.8,275.6"/>
		<path class="st0" d="M306,291.2c6.9,5.1,14.3,9.1,22.9,10.4c14.5,2.2,25.8-5,28.8-18.5c0.6-2.5,0.8-5.1,1.9-7.8
			c0,4.4,0.6,8.8-0.1,13c-3.7,20.8-26.1,30.8-44.4,19.8c-8.3-4.9-14.5-11.5-16.1-21.6c-2.3-15,10.7-27.3,25.4-23.8
			c5.9,1.2,10.6,5.7,12,11.5c1.8,5.6,0.3,11.7-3.7,16c-4.2,4.6-11.2,5.1-17,1.5c-5.3-3.3-7.3-8.9-5.2-14.6c1.8-4.9,7.3-7.3,12.1-5.5
			c0,0,0,0,0,0c3.9,1.5,5.8,5.8,4.3,9.7c-0.1,0.2-0.1,0.3-0.2,0.5c-0.9,1.5-2.3,2.7-3.9,3.2c-0.9,0.3-2.9-0.9-3.4-1.9
			c-0.4-0.8,0.3-2.7,1.1-3.5c1.3-1.2,3.5-1.9,2.2-4.2c-1.3-2.3-3.7-2.4-6-1.6c-5.5,2.1-6.3,10.1-1.4,14.3c4.9,4.1,12.2,3.4,16.3-1.6
			c0.9-1.1,1.7-2.5,2.1-3.9c2.4-7.2-1.5-15-8.7-17.4c-1.3-0.4-2.7-0.7-4-0.7c-13.1-0.5-23.2,12.5-18.7,24.8
			c6.1,16.4,26.2,28.7,45.6,13.4c0.5-0.5,1-1,1.5-1.6C330.3,307.1,312,302.7,306,291.2"/>
		<path class="st0" d="M0,238.2V76.7c9.3,0,17.6-3,24.4-9.8s9.6-14.9,9.8-24.5L229.1,43l0.4,1c-0.8,0.5-1.7,0.8-2.7,1
			C215.1,45.1,52,44.5,40.3,44.5h-3.6c-2,21.1-16.4,33.1-34.5,34.7v156.6c20.2,2.6,31.8,13.8,34.4,34.5c1,0,2.3,0.1,3.5,0.1
			c11.7,0,175.7,0.6,187.4,0.7c0.9,0,1.8,0.8,2.7,1.2c-0.8,0.4-1.6,1.1-2.4,1.1c-13.2,0.1-178.7-0.6-191.9-0.6c-0.5,0-1-0.1-1.5-0.2
			C33.8,252.4,19.2,238.4,0,238.2z"/>
		<path class="st0" d="M724.7,238.2V76.7c-9.3,0-17.6-3-24.4-9.8s-9.7-14.9-9.8-24.5l-197.4,0.4l-0.4,1c0.8,0.5,1.7,0.9,2.7,1.1
			c11.7,0.1,177.3-0.3,189-0.3h3.6c2,21.1,16.4,33.1,34.5,34.7v156.5c-20.2,2.6-31.8,13.8-34.4,34.5c-1,0-2.3,0.1-3.5,0.1
			c-11.7,0-179.2,0-190.9,0c-0.9,0-1.8,0.8-2.7,1.2c0.8,0.4,1.6,1.1,2.4,1.1c8.3,0,79.1,0.1,133.2,0.1h62.1c0.5,0,1-0.1,1.5-0.2
			C690.8,252.4,705.5,238.4,724.7,238.2z"/>
		<path class="st0" d="M296.6,286.9c-8.2-5.9-15.8-11.8-23.8-17.1c-6.5-4.3-13.8-6.8-21.7-6.5c-2.4,0.1-4.8,0.6-7,1.5
			c-3.6,1.5-5.1,5.8-3.7,9.6c1,3.3,4.4,5.4,7.8,4.7c3.2-0.6,5.1-4.6,3.3-7.2c-0.6-0.9-2.2-1-3.5-1.6c-0.2,1.1-0.3,1.4-0.3,1.5
			c0.6,1.3,2.6,2.7,0.4,4c-0.6,0.4-2.5-0.2-3.1-1c-1.5-1.6-1.9-3.7-0.3-5.6c2.7-3,8.3-2.1,9.8,1.6c1.4,3,0.8,6.5-1.4,9
			c-2,2.3-6.4,2.8-9.6,1.3c-3.9-1.9-6.3-6-5.9-10.3c0.2-4.8,3.8-8.7,8.5-9.5c6.2-1.2,12.7-0.6,18.6,1.6
			c11.8,4.2,21.3,11.9,30.3,20.4C295.8,284.1,296,285.5,296.6,286.9"/>
		<path class="st0" d="M425.1,286.7c0.6-1.2,1-2.8,1.9-3.7c8.4-7.9,17.3-15.1,28.2-19.3c6.6-2.6,13.5-3.8,20.5-2.3
			c5.5,1,9.2,6.2,8.3,11.7c0,0.2-0.1,0.4-0.1,0.6c-1.1,5.6-5.7,9-11.2,8.2c-2.7-0.2-5-2.2-5.7-4.8c-0.8-3-1-6.3,1.7-8.2
			c1.9-1,4.2-1.3,6.4-0.8c3.4,0.9,4,4.8,1.3,7.1c-0.7,0.6-2,0.4-3,0.6c-0.1-1-0.1-2,0-3c0.1-0.5,0.5-0.9,0.9-1.5
			c-2.2-1.5-3.9-0.9-4.2,1.3c-0.2,1.7,0.2,4.5,1.3,5.1c1.9,1,4.2,1.3,6.3,0.7c3.1-1,4.2-4,4.1-7.2c-0.1-3.2-1.6-5.9-4.6-6.5
			c-4-1-8.1-1.3-12.1-1c-8.8,1-16.2,5.4-23.2,10.5c-5.5,4.1-10.8,8.4-16.2,12.7L425.1,286.7"/>
		<path class="st0" d="M426.2,28c7,5.2,13.7,10.7,20.9,15.5s14.9,8.1,23.8,7.8c2.7-0.1,5.4-0.7,7.9-1.8c2.9-1.3,4-4,3.6-7.2
			s-1.6-5.8-4.8-6.4c-2.1-0.4-4.2,0.1-5.9,1.2c-1,0.8-1.3,3.3-1.1,4.9c0.4,2.1,2,2.8,4,1.5c0-0.3,0-0.6,0-0.9
			c-0.4-1.1-0.7-2.2-1-3.3c0-0.2,1.3-1,1.6-0.8c1.2,0.6,2.2,1.5,2.9,2.6c1.2,2.4,0,4.7-2.7,5.7c-3.5,1.3-7-0.3-8-3.8
			c-1-3.6,0.2-7.5,2.9-9.2c3-2,8-1.4,10.9,1.3c3.3,3,4.1,6.8,3.1,11s-4.2,6.5-8.3,7.3c-8,1.6-15.5,0-22.7-3.3
			c-9.7-4.4-18-10.9-25.6-18.3c-1-0.9-1.4-2.4-2-3.7L426.2,28"/>
		<path class="st0" d="M297.1,28.3c-0.5,1.1-0.8,2.4-1.5,3.2c-8.4,8.1-17.4,15.3-28.4,19.6c-6.7,2.7-13.7,3.9-20.9,2.2
			c-5.3-1.1-8.9-6.1-8.1-11.5c0.7-5.2,4.6-9,9.6-9.1c2.8,0,5.2,0.7,6.8,3.3c1.6,2.6,1.7,5.9,0.2,8.5c-1.2,2.4-4,3.5-6.5,2.4
			c-1.6-0.6-3.4-2.2-3.8-3.7c-0.3-1.3,1.4-3,2.4-4.4c0.2-0.3,2,0.1,2,0.2c0.1,1.4-0.1,2.8-0.2,4.8c1.7,1.3,3,0.3,3.6-2
			s0.1-4.4-2.1-5.7c-2.4-1.4-5.4-1-7.3,1c-3.2,2.8-3.5,7.8-0.7,11c0.9,1,2,1.7,3.2,2.2c6.1,2.2,12.2,1.1,18.2-0.8
			c9.5-3.2,17.3-9.2,25-15.4c2.6-2,5-4.2,7.6-6.3L297.1,28.3"/>
		<path class="st0" d="M368.2,282.9c-3.5-5.1-3.5-11-0.2-15.1c0.1,1.7,0.1,3.2,0.3,4.8c0,0.9,0.2,1.8,0.7,2.6c1.4,1.5,3,2.8,4.7,3.9
			c0.4,0.3,2.5-1,2.5-1.5c-0.2-2-0.5-4-1-6c2.2-0.4,4.1,1,5.2,3.7c1.2,3,0,6.9-2.4,8.2c-2.7,1.5-5.6,0.8-8.6-2.3L368.2,282.9"/>
		<path class="st0" d="M374.8,42.8c0.6-0.5,1.5-0.9,1.5-1.4c0.1-1.7,0.2-3.4,0.1-5.1c-1.6,0.1-4-0.5-4.5,0.3
			c-1.4,2.3-2.5,4.7-3.2,7.3c-0.2,1.2-0.2,2.4-0.1,3.5c-3.5-4.3-3.5-9.9,0-15.6l1.1,1.5c4.2-3.1,7-3.7,9.3-1.9
			c2.1,1.7,3,5.4,1.8,8.2C379.9,42.4,378.3,43.2,374.8,42.8"/>
		<path class="st0" d="M353.5,283l-1.4-2c-2.1,3-4.9,4.2-8.3,2.7c-2.4-1.1-3.8-4.9-2.9-7.8s2.8-4.6,6.1-4.2c0,0.2,0.1,0.5,0.1,0.6
			c-0.8,1.6-1.5,3.2-2,4.9c-0.1,0.5,1.8,2.1,2.2,1.9c1.7-0.8,4-1.8,4.7-3.3c1.1-2.6,1.2-5.6,1.7-8.1C356.9,271,357.1,277,353.5,283"
			/>
		<path class="st0" d="M353,33.6l1-1.6c3.2,1,3.3,11.2,0.3,15.4c-0.1-2.2-0.3-4.5-0.8-6.7c-0.4-1.5-1.3-2.9-2.4-4
			c-1.4-1.3-3.4-2.1-4.8-0.2c-1.8,2.4-0.7,4.5,1.9,6.4c-3.3,0.5-5.2-0.6-6.3-3.2c-1.3-2.8-0.3-6.8,1.9-8.4
			C346.4,29.7,349.7,30.4,353,33.6"/>
		<path class="st0" d="M426.1,34.7l18.2,15C435.8,50.7,426.4,43,426.1,34.7"/>
		<path class="st0" d="M278.1,50l18.6-15.3C296.9,42.7,288.7,49.5,278.1,50"/>
		<path class="st0" d="M277.7,264.9c9.5-0.1,17.4,6.3,18.8,15.5L277.7,264.9"/>
		<path class="st0" d="M444.1,264.8l-18.4,15.1C424.9,272.6,433.7,265.1,444.1,264.8"/>
		<path class="st0" d="M286.6,30.7c-7.8,8-17.5,11.9-28.2,13.8l-0.5-0.8c0.7-0.6,1.4-1.5,2.2-1.7C269.9,40.6,278.4,36,286.6,30.7"/>
		<path class="st0" d="M464.5,43.6c-9,0.5-22.9-6-29-13.1c3,1.9,5.3,3.7,7.8,4.7c6.1,2.5,12.4,4.5,18.6,6.8
			C462.8,42.4,463.7,42.9,464.5,43.6"/>
		<path class="st0" d="M286.6,284.1c-8.3-5.4-16.8-10-26.8-11.3c-0.7-0.1-1.4-1.1-1.8-2C269.1,272.1,278.8,276,286.6,284.1"/>
		<path class="st0" d="M435.8,284.2c5.7-6.9,18.8-13.1,29.3-13.7c-1.3,1.1-1.9,2.1-2.7,2.3C452.5,274.2,444,278.8,435.8,284.2"/>
		<path class="st0" d="M428.7,54c-4.9-2.1-6.5-7.4-4.3-15.1C426,44.3,430.7,48.1,428.7,54"/>
		<path class="st0" d="M423.8,276.1c-2.1-8.1-0.8-12.6,4.2-15.5C430.3,266.7,425.3,270.5,423.8,276.1"/>
		<path class="st0" d="M298.5,39.7c2,7.2,0.6,11.9-4.2,14.3C292.2,48.1,296.9,44.4,298.5,39.7"/>
		<path class="st0" d="M293.6,260.7c4.9,2.5,6.3,6.9,4.4,15.4C296.2,270.5,291.8,266.8,293.6,260.7"/>
		<path class="st0" d="M346.3,0.2c7.3-1.1,12.2,2.8,12.1,9.5L346.3,0.2"/>
		<path class="st0" d="M364.4,9.9c0.5-7.2,4.6-10.7,12.2-9.7L364.4,9.9"/>
		<path class="st0" d="M302.4,259.9c3.6,3.8,3.6,3.9-1.8,8.1L302.4,259.9"/>
		<path class="st0" d="M302.9,54.2l-1.9-8.3C306.4,50.6,306.5,50.7,302.9,54.2"/>
		<path class="st0" d="M419.9,54.9c-3.6-4.1-3.5-4.2,1.9-8.8L419.9,54.9"/>
		<path class="st0" d="M419.2,259.9l1.9,8.7C415.7,264.1,415.6,264,419.2,259.9"/>
	</g>
</g>
</svg>
